Mapping commuter patterns in Allegheny County
…
The crosswalk file contains keys to join a variety of geographies.

geo_crosswalk

## # A tibble: 421,545 x 43
##    tabblk2010 st    stusps stname cty   ctyname trct  trctname bgrp 
##    <chr>      <chr> <chr>  <chr>  <chr> <chr>   <chr> <chr>    <chr>
##  1 420010301~ 42    PA     Penns~ 42001 Adams ~ 4200~ 301.01 ~ 4200~
##  2 420010301~ 42    PA     Penns~ 42001 Adams ~ 4200~ 301.01 ~ 4200~
##  3 420010301~ 42    PA     Penns~ 42001 Adams ~ 4200~ 301.01 ~ 4200~
##  4 420010301~ 42    PA     Penns~ 42001 Adams ~ 4200~ 301.01 ~ 4200~
##  5 420010301~ 42    PA     Penns~ 42001 Adams ~ 4200~ 301.01 ~ 4200~
##  6 420010301~ 42    PA     Penns~ 42001 Adams ~ 4200~ 301.01 ~ 4200~
##  7 420010301~ 42    PA     Penns~ 42001 Adams ~ 4200~ 301.01 ~ 4200~
##  8 420010301~ 42    PA     Penns~ 42001 Adams ~ 4200~ 301.01 ~ 4200~
##  9 420010301~ 42    PA     Penns~ 42001 Adams ~ 4200~ 301.01 ~ 4200~
## 10 420010301~ 42    PA     Penns~ 42001 Adams ~ 4200~ 301.01 ~ 4200~
## # ... with 421,535 more rows, and 34 more variables: bgrpname <chr>,
## #   cbsa <chr>, cbsaname <chr>, zcta <chr>, zctaname <chr>, stplc <chr>,
## #   stplcname <chr>, ctycsub <chr>, ctycsubname <chr>, stcd115 <chr>,
## #   stcd115name <chr>, stsldl <chr>, stsldlname <chr>, stsldu <chr>,
## #   stslduname <chr>, stschool <chr>, stschoolname <chr>, stsecon <chr>,
## #   stseconname <chr>, trib <chr>, tribname <chr>, tsub <chr>,
## #   tsubname <chr>, stanrc <chr>, stanrcname <chr>, necta <chr>,
## #   nectaname <chr>, mil <chr>, milname <chr>, stwib <chr>,
## #   stwibname <chr>, blklatdd <chr>, blklondd <chr>, createdate <chr>

Next I read in the main LODES data. This is a big file, so it takes a moment.

df <- read_csv("data/pa_od_main_JT00_2015.csv.gz", col_types = cols(.default = "c")) %>% 
  mutate(S000 = as.numeric(S000)) %>% 
  select(h_geocode, w_geocode, S000)

df

## # A tibble: 4,961,712 x 3
##    h_geocode       w_geocode        S000
##    <chr>           <chr>           <dbl>
##  1 420010303001089 420010301011013     1
##  2 420410126001030 420010301011013     1
##  3 421330217111050 420010301011013     1
##  4 420010301011029 420010301011016     1
##  5 420010301011063 420010301011016     1
##  6 420010301011090 420010301011016     1
##  7 420010302001079 420010301011016     1
##  8 420010302001089 420010301011016     1
##  9 420010304003043 420010301011016     1
## 10 420010307002014 420010301011016     1
## # ... with 4,961,702 more rows
…
This code sets the nodes for the graph at the center of each census tract and creates a manual layout that the network plot will use.

node_pos <- allegheny_tracts_centroids

manual_layout <- create_layout(graph = g_main,
                               layout = node_pos)

## # A tibble: 402 x 7
##    GEOID         x     y name      .ggraph.orig_ind~ .ggraph.index circular
##    <chr>     <dbl> <dbl> <chr>                 <int>         <int> <lgl>   
##  1 42003010~ -80.0  40.4 42003010~                 1             1 FALSE   
##  2 42003020~ -80.0  40.4 42003020~                 2             2 FALSE   
##  3 42003020~ -80.0  40.5 42003020~                 3             3 FALSE   
##  4 42003030~ -80.0  40.4 42003030~                 4             4 FALSE   
##  5 42003040~ -80.0  40.4 42003040~                 5             5 FALSE   
##  6 42003040~ -79.9  40.4 42003040~                 6             6 FALSE   
##  7 42003040~ -80.0  40.4 42003040~                 7             7 FALSE   
##  8 42003040~ -80.0  40.4 42003040~                 8             8 FALSE   
##  9 42003040~ -80.0  40.4 42003040~                 9             9 FALSE   
## 10 42003050~ -80.0  40.4 42003050~                10            10 FALSE   
## # ... with 392 more rows
…
manual_layout_faceted <- create_layout(graph = g_facet,
                                        layout = node_pos)
manual_layout_faceted %>% 
  as_tibble()

## # A tibble: 402 x 7
##    GEOID         x     y name      .ggraph.orig_ind~ .ggraph.index circular
##    <chr>     <dbl> <dbl> <chr>                 <int>         <int> <lgl>   
##  1 42003010~ -80.0  40.4 42003010~                 1             1 FALSE   
##  2 42003020~ -80.0  40.4 42003020~                 2             2 FALSE   
##  3 42003020~ -80.0  40.5 42003020~                 3             3 FALSE   
##  4 42003030~ -80.0  40.4 42003030~                 4             4 FALSE   
##  5 42003040~ -80.0  40.4 42003040~                 5             5 FALSE   
##  6 42003040~ -79.9  40.4 42003040~                 6             6 FALSE   
##  7 42003040~ -80.0  40.4 42003040~                 7             7 FALSE   
##  8 42003040~ -80.0  40.4 42003040~                 8             8 FALSE   
##  9 42003040~ -80.0  40.4 42003040~                 9             9 FALSE   
## 10 42003050~ -80.0  40.4 42003050~                10            10 FALSE   
## # ... with 392 more rows
…
allegheny_tracts_highlight <- allegheny_tracts %>% 
  semi_join(df_tracts_summarized %>% 
              filter(h_tract == filter_tract), by = c("GEOID" = "w_tract")) %>% 
  filter(commuters_in > minimum_commuters)

allegheny_tracts_highlight

## Simple feature collection with 208 features and 5 fields
## geometry type:  MULTIPOLYGON
## dimension:      XY
## bbox:           xmin: -80.36087 ymin: 40.20845 xmax: -79.70383 ymax: 40.67494
## epsg (SRID):    4269
## proj4string:    +proj=longlat +datum=NAD83 +no_defs
## # A tibble: 208 x 6
##    GEOID NAME  total_pop                  geometry commuters_out
##  * <chr> <chr>     <dbl>        <MULTIPOLYGON []>         <dbl>
##  1 4200~ Cens~      6600 (((-79.98077 40.43836, -~           390
##  2 4200~ Cens~      3629 (((-79.9908 40.44442, -7~          1030
##  3 4200~ Cens~       616 (((-79.98062 40.45904, -~           411
##  4 4200~ Cens~      2604 (((-79.96802 40.4429, -7~           428
##  5 4200~ Cens~      2488 (((-79.94652 40.44508, -~           357
##  6 4200~ Cens~      3694 (((-79.95497 40.4371, -7~           290
##  7 4200~ Cens~      2969 (((-79.94986 40.43443, -~           805
##  8 4200~ Cens~      2057 (((-79.96206 40.44863, -~           800
##  9 4200~ Cens~      2197 (((-79.93137 40.45274, -~           769
## 10 4200~ Cens~      2997 (((-79.92533 40.45499, -~          1367
## # ... with 198 more rows, and 1 more variable: commuters_in <dbl>
…
Set the layout for the graph:

manual_layout_filtered <- create_layout(graph = g_filtered,
                                        layout = node_pos)

## # A tibble: 402 x 7
##    GEOID         x     y name      .ggraph.orig_ind~ .ggraph.index circular
##    <chr>     <dbl> <dbl> <chr>                 <int>         <int> <lgl>   
##  1 42003010~ -80.0  40.4 42003010~                 1             1 FALSE   
##  2 42003020~ -80.0  40.4 42003020~                 2             2 FALSE   
##  3 42003020~ -80.0  40.5 42003020~                 3             3 FALSE   
##  4 42003030~ -80.0  40.4 42003030~                 4             4 FALSE   
##  5 42003040~ -80.0  40.4 42003040~                 5             5 FALSE   
##  6 42003040~ -79.9  40.4 42003040~                 6             6 FALSE   
##  7 42003040~ -80.0  40.4 42003040~                 7             7 FALSE   
##  8 42003040~ -80.0  40.4 42003040~                 8             8 FALSE   
##  9 42003040~ -80.0  40.4 42003040~                 9             9 FALSE   
## 10 42003050~ -80.0  40.4 42003050~                10            10 FALSE   
## # ... with 392 more rows
…
